   debugger;
        //txtDueDates
        var DueDate = document.getElementById("<%=txtDueDates.ClientID%>").value;
        var CommPerOnDueDt = document.getElementById("<%=txtAddCommPerOnDueDt.ClientID%>");

        if (CommPerOnDueDt > 100) {
            alert("Commission Percentage Cannot Be Greater Than 100 %");
            return false;
        }
        else {
            if (DueDate != "" && CommPerOnDueDt != "") {
                var randomnumber = parseFloat(document.getElementById('<%= hdnDueDateCount.ClientID %>').value);
                 var PerCommissionTot;
                 PerCommissionTot = 0;
                 debugger;
                 var opTable = document.getElementById("<%= tbDueDates.ClientID %>");

                for (var r = 1, n = opTable.rows.length; r < n; r++) {
                    PerCommissionTot += parseFloat(opTable.rows.item(r).cells.item(1).firstChild.innerHTML);
                }

                if (PerCommissionTot + parseFloat(CommPerOnDueDt) > 100) {
                    alert("Total Commission Percentage is: " + PerCommissionTot + "  Commission Percentage Cannot Be Greater Than 100 %");
                    return false;
                }

                var rowCount = opTable.rows.length;
                var cellCount = opTable.rows[0].cells.length;
                var row = opTable.insertRow(rowCount);
                var cell_1 = row.insertCell(0);
                rowCount = rowCount + 1;

                var element_1 = document.createElement("Lable");
                element_1.type = "lable";
                element_1.name = 'lbDueDate_' + rowCount;
                element_1.id = 'lbDueDate_' + rowCount;
                element_1.innerHTML = DueDate;
                cell_1.appendChild(element_1);


                var cell_2 = row.insertCell(1);
                var element_2 = document.createElement("Lable");
                element_2.type = "lable";
                element_2.name = 'txtCommPerOnDueDt_' + rowCount;
                element_2.id = 'txtCommPerOnDueDt_' + rowCount;
                element_2.innerHTML = CommPerOnDueDt + '%';
                cell_2.appendChild(element_2);

                var cell_3 = row.insertCell(2);
                var element_3 = document.createElement("input");
                element_3.type = "button";
                element_3.name = 'btnDelDueDate_' + rowCount;
                element_3.id = 'btnDelDueDate_' + rowCount;
                cell_3.appendChild(element_3);

                randomnumber = randomnumber + 1;
                document.getElementById("<%= hdnDueDateCount.ClientID %>").value = randomnumber;
              }
          }
          return false;